id,tag
1,Algorithmen
1,Informatik
2,Algorithmen
2,Informatik
3,Informatik
3,Algorithmen
3,Graphen
4,Informatik
4,Graph
4,Algorithmen
5,Informatik
5,Graph
5,Algorithmen
6,Informatik
6,Menge
6,Algorithmen
7,Informatik
7,Menge
7,Algorithmen
8,Informatik
8,Menge
8,Algorithmen
9,Informatik
9,Algorithmen
9,Greedy
10,Informatik
10,Baum
10,Greedy
11,Informatik
11,Menge
11,Greedy
12,Informatik
12,Fluss
12,Netzwerk
13,Informatik
13,Fluss
13,Netzwerk
14,Informatik
14,Fluss
14,Netzwerk
14,Graph
15,Informatik
15,Fluss
15,Netzwerk
15,Graph
16,Informatik
16,Fluss
16,Netzwerk
16,Algorithmus
17,Informatik
17,Fluss
17,Netzwerk
18,Informatik
18,Fluss
18,Netzwerk
19,Informatik
19,Fluss
19,Netzwerk
20,Informatik
20,Programmiersprache
21,Informatik
21,Programmiersprache
21,Paradigma
22,Informatik
22,Programmiersprache
22,Paradigma
23,Informatik
23,Programmiersprache
23,Paradigma
23,Funktion
24,Informatik
24,Programmiersprache
24,Logik
24,Paradigma
25,Informatik
25,Programmiersprache
25,Compiler
26,Informatik
26,Programmiersprache
26,Compiler
27,Informatik
27,Programmiersprache
27,Compiler
28,Informatik
28,Programmiersprache
28,Compiler
28,Assembler
29,Informatik
29,Programmiersprache
29,Compiler
29,C
30,Informatik
30,Programmiersprache
30,Compiler
31,Informatik
31,Programmiersprache
31,Compiler
32,Informatik
32,Programmiersprache
32,Compiler
33,Informatik
33,Compilation
33,Skriptsprache
34,Informatik
34,Java
34,Nebenläufigkeit
35,Informatik
35,Java
35,Nebenläufigkeit
36,Informatik
36,Java
36,Nebenläufigkeit
37,Informatik
37,Java
37,Nebenläufigkeit
38,Informatik
38,Java
38,Nebenläufigkeit
39,Informatik
39,Java
39,Nebenläufigkeit
40,Informatik
40,Java
40,Nebenläufigkeit
41,Informatik
41,Java
41,Nebenläufigkeit
42,Informatik
42,Java
42,Nebenläufigkeit
43,Informatik
43,Java
43,Nebenläufigkeit
44,Informatik
44,Java
44,Nebenläufigkeit
45,Informatik
45,Java
45,Nebenläufigkeit
46,Informatik
46,Java
46,Nebenläufigkeit
46,Philosophie
47,Informatik
47,Java
47,Nebenläufigkeit
48,Accounting
48,Rechnungswesen
49,Rechnungswesen
49,Problem
50,Rechnungswesen
50,Problem
51,Rechnungswesen
52,Rechungswesen
53,Rechnungswesen
54,Rechnungswesen
55,Rechnungswesen
55,Recht
56,Rechnungswesen
56,Bilanz
57,Rechnungswesen
57,Bilanz
58,Rechnungswesen
58,Bilanz
59,Rechnungswesen
59,Bilanz
60,Rechnungswesen
60,Bilanz
61,Rechnungswesen
61,Unternehmenswert
62,Rechnungswesen
62,Kosten und Erlösrechnung
63,Rechnungswesen
63,Kosten und Erlösrechnung
64,Rechnungswesen
65,Rechnungswesen
66,Rechnungswesen
67,Rechnungswesen
68,Rechnungswesen
68,Zurechnungsprinzip
69,Rechnungswesen
69,Zurechnungsprinzip
70,Rechnungswesen
70,Kosten
71,Rechnungswesen
71,Kosten
72,Rechnungswesen
72,Kosten
73,Rechnungswesen
73,Kosten
74,Rechnungswesen
74,Kosten
75,Rechnungswesen
75,Kosten
76,Rechnungswesen
76,Kosten
77,Rechnungswesen
77,Kosten
78,Rechnungswesen
78,Kosten
79,Rechnungswesen
79,Kosten
79,Betriebsmittelkosten
80,Rechnungswesen
80,Kosten
80,Betriebsmittelkosten
81,Rechnungswesen
81,Kosten
73,Finanzbuchhaltung
82,Rechnungswesen
82,Kosten
83,Rechnungswesen
83,Kosten
84,Rechnungswesen
84,Kosten
85,Rechnungswesen
85,Kosten
86,Rechnungswesen
86,Kostenstellen
87,Rechnungswesen
87,Innerbetriebliche Leistungsverrechnung
88,Rechnungswesen
88,Innerbetriebliche Leistungsverrechnung
89,Rechnungswesen
89,Innerbetriebliche Leistungsverrechnung
90,Rechnungswesen
90,Innerbetriebliche Leistungsverrechnung
91,Rechnungswesen
91,Innerbetriebliche Leistungsverrechnung
91,
92,Rechnungswesen
92,Innerbetriebliche Leistungsverrechnung
92,
93,Rechnungswesen
93,Innerbetriebliche Leistungsverrechnung
93,
94,Rechnungswesen
94,Kalkulation
95,Rechnungswesen
95,Kalkulation
96,Rechnungswesen
96,Kalkulation
97,Rechnungswesen
97,Kalkulation
98,Rechnungswesen
98,Kalkulation
99,Rechnungswesen
99,Kalkulation
100,Rechnungswesen
100,Kalkulation
101,Rechnungswesen
101,Kalkulation
102,Rechnungswesen
102,Kalkulation
103,Rechnungswesen
103,Kalkulation
104,Rechnungswesen
104,Kalkulation
105,Rechnungswesen
105,Kalkulation
106,Rechnungswesen
106,Kalkulation
107,Rechnungswesen
107,Kalkulation
108,Rechnungswesen
109,Rechnungswesen
110,Rechnungswesen
111,Rechnungswesen
111,Periodenerfolgsrechnung
112,Rechnungswesen
112,Periodenerfolgsrechnung
113,Rechnungswesen
113,Periodenerfolgsrechnung
114,tag1
114,tag2
114,Rechnungswesen
114,Break-Even
114,Invest
114,Outsourcing
115,Rechnungswesen
115,KPI
116,Rechnungswesen
116,KPI